abil:1
academ:2
acquir:3
acquisit:4
activ:5
advanc:6
air:7
analys:8
analysi:9
appli:10
applic:11
apprais:12
approach:13
architectur:14
area:15
argument:16
aspect:17
assess:18
asset:19
audio:20
Australia:21
Australian:22
awar:23
bank:24
base:25
basi:26
basic:27
behaviour:28
bodi:29
brain:30
bridg:31
broader:32
build:33
busi:34
capac:35
care:36
case:37
challeng:38
chang:39
chemistri:40
climat:41
clinic:42
collect:43
commerc:44
common:45
commun:46
compar:47
compet:48
complet:49
complex:50
compon:51
comprehens:52
concept:53
conceptu:54
condit:55
conduct:56
conflict:57
construct:58
contemporari:59
context:60
contribut:61
control:62
cover:63
creat:64
creativ:65
crime:66
crimin:67
critic:68
critiqu:69
cultur:70
current:71
data:72
databas:73
debt:74
decis:75
decision-mak:76
deliveri:77
demonstr:78
describ:79
design:80
determin:81
develop:82
digit:83
disciplin:84
discours:85
discuss:86
diseas:87
documentari:88
dynam:89
econom:90
educ:91
effect:92
element:93
emphasi:94
engag:95
engin:96
environ:97
environment:98
ethic:99
evalu:100
event:101
evid:102
examin:103
exampl:104
experi:105
experiment:106
explain:107
explor:108
factor:109
famili:110
field:111
film:112
financ:113
financi:114
find:115
focu:116
focus:117
food:118
form:119
formul:120
framework:121
French:122
function:123
fundament:124
gain:125
game:126
gender:127
gener:128
global:129
group:130
hazard:131
health:132
histor:133
histori:134
human:135
idea:136
identifi:137
impact:138
implement:139
implic:140
import:141
improv:142
includ:143
independ:144
individu:145
industri:146
inform:147
infrastructur:148
injuri:149
institut:150
integr:151
interest:152
intern:153
interpret:154
introduc:155
investig:156
involv:157
issu:158
Japan:159
Japanese:160
journal:161
key:162
knowledg:163
laboratori:164
languag:165
law:166
leadership:167
learn:168
legal:169
level:170
life:171
lifestyl:172
limit:173
literari:174
literatur:175
major:176
manag:177
market:178
materi:179
measur:180
media:181
medic:182
mental:183
method:184
methodolog:185
model:186
monitor:187
nation:188
natur:189
nois:190
nurs:191
occup:192
oper:193
opportun:194
oral:195
order:196
organis:197
outcom:198
part:199
peopl:200
perform:201
person:202
perspect:203
plan:204
polici:205
polit:206
power:207
practic:208
prepar:209
present:210
primari:211
principl:212
problem:213
procedur:214
process:215
produc:216
product:217
profession:218
program:219
project:220
provid:221
public:222
qualit:223
qualiti:224
quantit:225
question:226
radiat:227
rang:228
read:229
recognis:230
reflect:231
relat:232
relationship:233
relev:234
report:235
requir:236
resourc:237
respons:238
result:239
review:240
right:241
risk:242
role:243
rule:244
safeti:245
scienc:246
scientif:247
secur:248
select:249
semest:250
servic:251
set:252
situat:253
skill:254
social:255
societi:256
softwar:257
solut:258
solv:259
sound:260
sourc:261
specif:262
standard:263
statist:264
strategi:265
strength:266
structur:267
student:268
studi:269
studio:270
support:271
sustain:272
synthesis:273
system:274
task:275
team:276
technic:277
techniqu:278
technolog:279
televis:280
text:281
theoret:282
theori:283
therapi:284
think:285
time:286
tool:287
topic:288
tourism:289
type:290
understand:291
undertak:292
unit:293
utilis:294
varieti:295
water:296
way:297
weather:298
work:299
world:300
write:301
written:302
year:303
